[
  {
    "tier": 1,
    "name": "Marathon",
    "amount": "25000",
    "url": "https://www.marathonpetroleum.com/Operations/Refining/Anacortes-Refinery/",
    "backgroundImage": "/uploads/sponsor-cts-marathon-bg-r.jpg",
    "logo": "/uploads/sponsor-cts-marathon-r.jpg",
    "logo_width": 110
  },
  {
    "tier": 2,
    "name": "Haven Financial",
    "amount": 10000,
    "url": "https://www.raymondjames.com/havenfinancialpartners/about-us/anacortes-team",
    "backgroundImage": "/uploads/haven-billboard-21-foggy-rocky-stream-in-forest.jpg",
    "logo": "/uploads/2022-cts-haven.gif",
    "logo_width": 0
  },
  {
    "tier": 2,
    "name": "T Bailey Inc",
    "amount": 10000,
    "url": "https://tbailey.com/",
    "backgroundImage": "/uploads/sponsor-cts-bailey-bg-r.jpg",
    "logo": "/uploads/sponsor-cts-bailey-r.jpg",
    "logo_width": 100
  },
  {
    "tier": 3,
    "name": "Strandberg",
    "amount": 6000,
    "url": "https://strandbergconstruction.com/",
    "backgroundImage": "/uploads/2023-sponsor-strandberg-bg.jpg",
    "logo": "/uploads/2023-cts-strandberg.jpg",
    "logo_width": 275
  },
  {
    "tier": 3,
    "name": "Windermere",
    "amount": 6000,
    "url": "https://anacortesrealestate.com/",
    "backgroundImage": "/uploads/sponsor-cts-windermere-bg.jpg",
    "logo": "/uploads/2022-cts-windermere.jpg",
    "logo_width": 275
  },
  {
    "tier": 3,
    "name": "Dakota Creek Industries",
    "amount": 5000,
    "url": "https://dakotacreek.com/",
    "backgroundImage": "/uploads/sponsor-cts-dakotacreekbg-r.jpg",
    "logo": "/uploads/2022-cts-dakotacreek-r.jpg",
    "logo_width": 275
  },
  {
    "tier": 3,
    "name": "Freedom Boat Club",
    "amount": 5000,
    "url": "http://info.freedomboatclub.com/dp/sanjuanislands?utm_source=Google+My+Business&utm_medium=GMB+Extension&utm_campaign=GMB+Landing+Page&urlfeed1=What_Are_YOU_Waiting_For",
    "backgroundImage": "/uploads/2023-sponsor-fbc-bg.jpg",
    "logo": "/uploads/2023-cts-fbc.jpg",
    "logo_width": 275
  },
  {
    "tier": 4,
    "name": "Proscapes",
    "amount": 3700,
    "url": "https://www.usproscapes.com/",
    "backgroundImage": "/uploads/sponsor-cts-proscapes-bg-r.jpg",
    "logo": "/uploads/2021-cts-proscapes-r.jpg",
    "logo_width": 200
  },
  {
    "tier": 4,
    "name": "Burton Jewelers",
    "amount": 3000,
    "url": "https://www.burtonjewelers.com/",
    "backgroundImage": "/uploads/sponsor-cts-burton_bg-rr.jpg",
    "logo": "/uploads/2022-cts-burton-r.jpg",
    "logo_width": 275
  },
  {
    "tier": 4,
    "name": "Edward Jones Troy Kunz",
    "amount": 3000,
    "url": "https://www.edwardjones.com/us-en/financial-advisor/troy-kunz",
    "backgroundImage": "/uploads/sponsor-cts-capsante_bg-r.jpg",
    "logo": "/uploads/2023-cts-edj2.jpg",
    "logo_width": 275
  },
  {
    "tier": 4,
    "name": "MultiGen Wealth",
    "amount": 3000,
    "url": "https://multigenws.com/",
    "backgroundImage": "/uploads/sponsor-cts-multigen-bg-r.jpg",
    "logo": "/uploads/2021-cts-multigen2-r.jpg",
    "logo_height": 0,
    "logo_width": 175
  },
  {
    "tier": 4,
    "name": "Alaska Airlines",
    "amount": 2500,
    "url": "https://www.alaskaair.com/",
    "backgroundImage": "/uploads/2023-sponsor-alaska-bg.jpg",
    "logo": "/uploads/2023-cts-alaska.jpg",
    "logo_width": 0
  },
  {
    "tier": 4,
    "name": "Heritage Bank",
    "amount": 2500,
    "url": "https://www.heritagebanknw.com/home/home",
    "backgroundImage": "/uploads/sponsor-cts-heritage2_bg-r.jpg",
    "logo": "/uploads/2021-cts-heritage2-r.jpg",
    "logo_width": 175
  },
  {
    "tier": 4,
    "name": "Sierra Pacific",
    "amount": 2500,
    "url": "https://www.spi-ind.com/",
    "backgroundImage": "/uploads/sponsor-cts-sierra-bg.jpg",
    "logo": "/uploads/sponsor-cts-sierra-logo.png",
    "logo_width": 0
  },
  {
    "tier": 4,
    "name": "Williams & Nulle CPA ",
    "amount": 2500,
    "url": "https://www.wncpa.com/",
    "backgroundImage": "/uploads/2023-sponsor-wn-bg.jpg",
    "logo": "/uploads/2023-cts-williamsnulle.jpg",
    "logo_width": 275
  },
  {
    "tier": 5,
    "name": "Anthony's at Cap Sante Marina",
    "amount": 2000,
    "url": "https://www.anthonys.com/restaurant/anthonys-at-cap-sante-marina/",
    "backgroundImage": "/uploads/sponsor-cts-anthonys-bg-r.jpg",
    "logo": "/uploads/2021-cts-anthonys-r.jpg",
    "logo_width": 200
  },
  {
    "tier": 5,
    "name": "Playhouse Dental",
    "amount": 2000,
    "url": "https://www.playhousedentalkids.com/",
    "backgroundImage": "/uploads/sponsor-cts-playhouse_bg-r.jpg",
    "logo": "/uploads/2021-cts-playhouse-r.jpg",
    "logo_width": 175
  },
  {
    "tier": 5,
    "name": "Transpac Marinas",
    "amount": 2000,
    "url": "https://www.transpacmarinas.com/",
    "backgroundImage": "/uploads/sponsor-cts-transpac-bg-r.jpg",
    "logo": "/uploads/2021-cts-transpac-r.jpg",
    "logo_width": 275
  },
  {
    "tier": 5,
    "name": "Brandywine Nursery",
    "amount": 1500,
    "url": "https://brandywinenursery.com/",
    "backgroundImage": "/uploads/2023-sponsor-brandywine-bg.jpg",
    "logo": "/uploads/2023-cts-brandywine.jpg",
    "logo_width": 200
  },
  {
    "tier": 5,
    "name": "Island Adventures",
    "amount": 1500,
    "url": "https://island-adventures.com/",
    "backgroundImage": "/uploads/sponsor-cts-island-bg-r.jpg",
    "logo": "/uploads/2021-cts-islandadventures-r.jpg",
    "logo_width": 175
  },
  {
    "tier": 5,
    "name": "Majestic",
    "amount": 1500,
    "url": "https://www.majesticinnandspa.com/",
    "backgroundImage": "/uploads/2023-sponsor-magestic-bg.jpg",
    "logo": "/uploads/2023-cts-majestic.jpg",
    "logo_width": 200
  },
  {
    "tier": 6,
    "name": "Anacortes Kayak Tours",
    "amount": 1000,
    "url": "https://www.anacorteskayaktours.com/",
    "backgroundImage": "/uploads/sponsor-cts-akt-bg-r.jpg",
    "logo": "/uploads/2021-cts-akt-r.jpg",
    "logo_width": 175
  },
  {
    "tier": 6,
    "name": "Atterberry Gardens",
    "amount": 1000,
    "url": "https://www.instagram.com/atterberrygardens/?hl=en",
    "backgroundImage": "/uploads/atterberry-bg.png",
    "logo": "/uploads/2023-cts-atterberry.jpg",
    "logo_width": 175
  },
  {
    "tier": 6,
    "name": "Derek Damon Orthodontics",
    "amount": 1000,
    "url": "http://www.derekdamonortho.com/",
    "backgroundImage": "/uploads/sponsor-cts-damon2-bg.jpg",
    "logo": "/uploads/2021-cts-damon-r.jpg",
    "logo_height": 0,
    "logo_width": 175
  },
  {
    "tier": 6,
    "name": "Domino's",
    "amount": 1000,
    "url": "https://pizza.dominos.com/washington/anacortes/",
    "backgroundImage": "/uploads/dominos-bg.jpg",
    "logo": "/uploads/2023-cts-dominos.jpg",
    "logo_width": 175
  },
  {
    "tier": 6,
    "name": "Fidalgo Creative",
    "amount": 1000,
    "url": "https://fidalgocreative.com/",
    "backgroundImage": "/uploads/sponsor-cts-fidalgocreative_bg-r.jpg",
    "logo": "/uploads/2021-cts-fidalgocreative-r.jpg",
    "logo_width": 175
  },
  {
    "tier": 6,
    "name": "Gere A Deli",
    "amount": 1000,
    "url": "https://gereadeli.com/",
    "backgroundImage": "/uploads/gere-a-deli.jpg",
    "logo": "/uploads/2023-cts-gere.jpg",
    "logo_width": 175
  },
  {
    "tier": 6,
    "name": "Guemes Island Resort",
    "amount": 1000,
    "url": "https://www.guemesislandresort.com/",
    "backgroundImage": "/uploads/sponsor-cts-guemes-bg-r.jpg",
    "logo": "/uploads/2021-cts-gir-r.jpg",
    "logo_width": 175
  },
  {
    "tier": 6,
    "name": "HF Sinclair",
    "amount": 1000,
    "url": "https://www.hfsinclair.com/operations/facilities/Puget-Sound-Refinery/",
    "backgroundImage": "/uploads/sponsor-cts-shell-bg-r.jpg",
    "logo": "/uploads/2022-cts-sinclair-r.jpg",
    "logo_width": 175
  },
  {
    "tier": 6,
    "name": "Johnny Picasso's",
    "amount": 1000,
    "url": "http://johnnypicasso.com/",
    "backgroundImage": "/uploads/2023-sponsor-picassos-bg.jpg",
    "logo": "/uploads/2023-cts-picassos.jpg",
    "logo_width": 175
  },
  {
    "tier": 6,
    "name": "North Sound Oral and Facial Surgery",
    "amount": 1000,
    "url": "https://www.northsoundoms.com/",
    "backgroundImage": "/uploads/nsos-bg.png",
    "logo": "/uploads/2023-cts-north-sound.jpg",
    "logo_width": 175
  },
  {
    "tier": 6,
    "name": "Paper Pie Ashley Depner",
    "amount": 1000,
    "url": "https://v3897.paperpie.com/wishlist/9c4ba6c6-ef5c-4786-8811-b05500dfc5f8?fbclid=IwAR1GD7cskKiuVbUgDuR2UXCXoAUH2BA9r2CvcynelvoqFSL_DydIybeK0rI",
    "backgroundImage": "/uploads/sponsor-cts-usborne_bg-r.jpg",
    "logo": "/uploads/2023-cts-paperpie.jpg",
    "logo_width": 175
  },
  {
    "tier": 6,
    "name": "Port of Anacortes",
    "amount": 1000,
    "url": "https://www.portofanacortes.com/",
    "backgroundImage": "/uploads/sponsor-cts-POA-bg-r.jpg",
    "logo": "/uploads/2022-cts-POA-r.jpg",
    "logo_width": 175
  },
  {
    "tier": 6,
    "name": "Sportradar",
    "amount": 1000,
    "url": "https://sportradar.com/",
    "backgroundImage": "/uploads/2023-sponsor-sportradar-bg.jpg",
    "logo": "/uploads/2023-cts-sportradar.jpg",
    "logo_width": 0
  },
  {
    "tier": 6,
    "name": "Trident Seafoods",
    "amount": 1000,
    "url": "https://www.tridentseafoods.com/",
    "backgroundImage": "/uploads/sponsor-cts-trident-bg-r.jpg",
    "logo": "/uploads/2021-cts-trident-r.jpg",
    "logo_width": 175
  },
  {
    "tier": 6,
    "name": "Cap Sante Inn",
    "amount": 1000,
    "url": "https://www.capsanteinn.net/",
    "backgroundImage": "/uploads/sponsor-cts-capsante_bg-r.jpg",
    "logo": "/uploads/2022-cts-capsante.png",
    "logo_width": 175
  }
]
